{  
   "data":{  
      "request":[  
         {  
            "type":"City",
            "query":"Vancouver, Canada"
         }
      ],
      "current_condition":[  
         {  
            "observation_time":"04:20 AM",
            "temp_C":"20",
            "temp_F":"68",
            "weatherCode":"116",
            "weatherIconUrl":[  
               {  
                  "value":"http://cdn.worldweatheronline.net/images/wsymbols01_png_64/wsymbol_0002_sunny_intervals.png"
               }
            ],
            "weatherDesc":[  
               {  
                  "value":"Partly Cloudy "
               }
            ],
            "windspeedMiles":"11",
            "windspeedKmph":"17",
            "winddirDegree":"290",
            "winddir16Point":"WNW",
            "precipMM":"0.0",
            "humidity":"73",
            "visibility":"48",
            "pressure":"1023",
            "cloudcover":"25",
            "FeelsLikeC":"20",
            "FeelsLikeF":"68"
         }
      ],
      "weather":[  
         {  
            "date":"2016-06-03",
            "astronomy":[  
               {  
                  "sunrise":"05:10 AM",
                  "sunset":"09:12 PM",
                  "moonrise":"04:36 AM",
                  "moonset":"07:29 PM"
               }
            ],
            "maxtempC":"26",
            "maxtempF":"79",
            "mintempC":"13",
            "mintempF":"56",
            "uvIndex":"8",
            "hourly":[  
               {  
                  "time":"200",
                  "tempC":"16",
                  "tempF":"61",
                  "windspeedMiles":"4",
                  "windspeedKmph":"7",
                  "winddirDegree":"132",
                  "winddir16Point":"SE",
                  "weatherCode":"122",
                  "weatherIconUrl":[  
                     {  
                        "value":"http://cdn.worldweatheronline.net/images/wsymbols01_png_64/wsymbol_0004_black_low_cloud.png"
                     }
                  ],
                  "weatherDesc":[  
                     {  
                        "value":"Overcast "
                     }
                  ],
                  "precipMM":"0.0",
                  "humidity":"84",
                  "visibility":"10",
                  "pressure":"1021",
                  "cloudcover":"97",
                  "HeatIndexC":"16",
                  "HeatIndexF":"61",
                  "DewPointC":"14",
                  "DewPointF":"56",
                  "WindChillC":"16",
                  "WindChillF":"61",
                  "WindGustMiles":"5",
                  "WindGustKmph":"9",
                  "FeelsLikeC":"16",
                  "FeelsLikeF":"61",
                  "chanceofrain":"0",
                  "chanceofremdry":"0",
                  "chanceofwindy":"0",
                  "chanceofovercast":"0",
                  "chanceofsunshine":"99",
                  "chanceoffrost":"0",
                  "chanceofhightemp":"0",
                  "chanceoffog":"0",
                  "chanceofsnow":"0",
                  "chanceofthunder":"0"
               },
               {  
                  "time":"500",
                  "tempC":"16",
                  "tempF":"60",
                  "windspeedMiles":"6",
                  "windspeedKmph":"9",
                  "winddirDegree":"125",
                  "winddir16Point":"SE",
                  "weatherCode":"122",
                  "weatherIconUrl":[  
                     {  
                        "value":"http://cdn.worldweatheronline.net/images/wsymbols01_png_64/wsymbol_0004_black_low_cloud.png"
                     }
                  ],
                  "weatherDesc":[  
                     {  
                        "value":"Overcast "
                     }
                  ],
                  "precipMM":"0.0",
                  "humidity":"86",
                  "visibility":"10",
                  "pressure":"1022",
                  "cloudcover":"95",
                  "HeatIndexC":"16",
                  "HeatIndexF":"60",
                  "DewPointC":"13",
                  "DewPointF":"56",
                  "WindChillC":"16",
                  "WindChillF":"60",
                  "WindGustMiles":"6",
                  "WindGustKmph":"10",
                  "FeelsLikeC":"16",
                  "FeelsLikeF":"60",
                  "chanceofrain":"0",
                  "chanceofremdry":"0",
                  "chanceofwindy":"0",
                  "chanceofovercast":"0",
                  "chanceofsunshine":"98",
                  "chanceoffrost":"0",
                  "chanceofhightemp":"0",
                  "chanceoffog":"0",
                  "chanceofsnow":"0",
                  "chanceofthunder":"0"
               },
               {  
                  "time":"800",
                  "tempC":"20",
                  "tempF":"68",
                  "windspeedMiles":"6",
                  "windspeedKmph":"10",
                  "winddirDegree":"138",
                  "winddir16Point":"SE",
                  "weatherCode":"113",
                  "weatherIconUrl":[  
                     {  
                        "value":"http://cdn.worldweatheronline.net/images/wsymbols01_png_64/wsymbol_0001_sunny.png"
                     }
                  ],
                  "weatherDesc":[  
                     {  
                        "value":"Sunny"
                     }
                  ],
                  "precipMM":"0.0",
                  "humidity":"80",
                  "visibility":"10",
                  "pressure":"1024",
                  "cloudcover":"0",
                  "HeatIndexC":"18",
                  "HeatIndexF":"65",
                  "DewPointC":"15",
                  "DewPointF":"58",
                  "WindChillC":"18",
                  "WindChillF":"65",
                  "WindGustMiles":"7",
                  "WindGustKmph":"12",
                  "FeelsLikeC":"18",
                  "FeelsLikeF":"65",
                  "chanceofrain":"0",
                  "chanceofremdry":"0",
                  "chanceofwindy":"0",
                  "chanceofovercast":"0",
                  "chanceofsunshine":"99",
                  "chanceoffrost":"0",
                  "chanceofhightemp":"0",
                  "chanceoffog":"0",
                  "chanceofsnow":"0",
                  "chanceofthunder":"0"
               },
               {  
                  "time":"1100",
                  "tempC":"17",
                  "tempF":"63",
                  "windspeedMiles":"7",
                  "windspeedKmph":"11",
                  "winddirDegree":"172",
                  "winddir16Point":"S",
                  "weatherCode":"113",
                  "weatherIconUrl":[  
                     {  
                        "value":"http://cdn.worldweatheronline.net/images/wsymbols01_png_64/wsymbol_0001_sunny.png"
                     }
                  ],
                  "weatherDesc":[  
                     {  
                        "value":"Sunny"
                     }
                  ],
                  "precipMM":"0.0",
                  "humidity":"72",
                  "visibility":"10",
                  "pressure":"1024",
                  "cloudcover":"0",
                  "HeatIndexC":"18",
                  "HeatIndexF":"64",
                  "DewPointC":"12",
                  "DewPointF":"54",
                  "WindChillC":"18",
                  "WindChillF":"64",
                  "WindGustMiles":"8",
                  "WindGustKmph":"13",
                  "FeelsLikeC":"18",
                  "FeelsLikeF":"64",
                  "chanceofrain":"0",
                  "chanceofremdry":"0",
                  "chanceofwindy":"0",
                  "chanceofovercast":"0",
                  "chanceofsunshine":"98",
                  "chanceoffrost":"0",
                  "chanceofhightemp":"0",
                  "chanceoffog":"0",
                  "chanceofsnow":"0",
                  "chanceofthunder":"0"
               },
               {  
                  "time":"1400",
                  "tempC":"26",
                  "tempF":"78",
                  "windspeedMiles":"4",
                  "windspeedKmph":"7",
                  "winddirDegree":"204",
                  "winddir16Point":"SSW",
                  "weatherCode":"113",
                  "weatherIconUrl":[  
                     {  
                        "value":"http://cdn.worldweatheronline.net/images/wsymbols01_png_64/wsymbol_0001_sunny.png"
                     }
                  ],
                  "weatherDesc":[  
                     {  
                        "value":"Sunny"
                     }
                  ],
                  "precipMM":"0.0",
                  "humidity":"68",
                  "visibility":"10",
                  "pressure":"1024",
                  "cloudcover":"0",
                  "HeatIndexC":"25",
                  "HeatIndexF":"77",
                  "DewPointC":"17",
                  "DewPointF":"63",
                  "WindChillC":"23",
                  "WindChillF":"74",
                  "WindGustMiles":"5",
                  "WindGustKmph":"8",
                  "FeelsLikeC":"25",
                  "FeelsLikeF":"77",
                  "chanceofrain":"0",
                  "chanceofremdry":"0",
                  "chanceofwindy":"0",
                  "chanceofovercast":"0",
                  "chanceofsunshine":"99",
                  "chanceoffrost":"0",
                  "chanceofhightemp":"10",
                  "chanceoffog":"0",
                  "chanceofsnow":"0",
                  "chanceofthunder":"0"
               },
               {  
                  "time":"1700",
                  "tempC":"26",
                  "tempF":"79",
                  "windspeedMiles":"3",
                  "windspeedKmph":"5",
                  "winddirDegree":"252",
                  "winddir16Point":"WSW",
                  "weatherCode":"113",
                  "weatherIconUrl":[  
                     {  
                        "value":"http://cdn.worldweatheronline.net/images/wsymbols01_png_64/wsymbol_0001_sunny.png"
                     }
                  ],
                  "weatherDesc":[  
                     {  
                        "value":"Sunny"
                     }
                  ],
                  "precipMM":"0.0",
                  "humidity":"65",
                  "visibility":"10",
                  "pressure":"1023",
                  "cloudcover":"0",
                  "HeatIndexC":"26",
                  "HeatIndexF":"79",
                  "DewPointC":"17",
                  "DewPointF":"63",
                  "WindChillC":"24",
                  "WindChillF":"76",
                  "WindGustMiles":"4",
                  "WindGustKmph":"6",
                  "FeelsLikeC":"26",
                  "FeelsLikeF":"79",
                  "chanceofrain":"0",
                  "chanceofremdry":"0",
                  "chanceofwindy":"0",
                  "chanceofovercast":"0",
                  "chanceofsunshine":"98",
                  "chanceoffrost":"0",
                  "chanceofhightemp":"15",
                  "chanceoffog":"0",
                  "chanceofsnow":"0",
                  "chanceofthunder":"0"
               },
               {  
                  "time":"2000",
                  "tempC":"23",
                  "tempF":"73",
                  "windspeedMiles":"5",
                  "windspeedKmph":"9",
                  "winddirDegree":"297",
                  "winddir16Point":"WNW",
                  "weatherCode":"113",
                  "weatherIconUrl":[  
                     {  
                        "value":"http://cdn.worldweatheronline.net/images/wsymbols01_png_64/wsymbol_0001_sunny.png"
                     }
                  ],
                  "weatherDesc":[  
                     {  
                        "value":"Sunny"
                     }
                  ],
                  "precipMM":"0.0",
                  "humidity":"68",
                  "visibility":"10",
                  "pressure":"1022",
                  "cloudcover":"1",
                  "HeatIndexC":"25",
                  "HeatIndexF":"77",
                  "DewPointC":"17",
                  "DewPointF":"62",
                  "WindChillC":"23",
                  "WindChillF":"73",
                  "WindGustMiles":"6",
                  "WindGustKmph":"10",
                  "FeelsLikeC":"25",
                  "FeelsLikeF":"77",
                  "chanceofrain":"0",
                  "chanceofremdry":"0",
                  "chanceofwindy":"0",
                  "chanceofovercast":"0",
                  "chanceofsunshine":"97",
                  "chanceoffrost":"0",
                  "chanceofhightemp":"0",
                  "chanceoffog":"0",
                  "chanceofsnow":"0",
                  "chanceofthunder":"0"
               },
               {  
                  "time":"2300",
                  "tempC":"22",
                  "tempF":"71",
                  "windspeedMiles":"5",
                  "windspeedKmph":"8",
                  "winddirDegree":"323",
                  "winddir16Point":"NW",
                  "weatherCode":"113",
                  "weatherIconUrl":[  
                     {  
                        "value":"http://cdn.worldweatheronline.net/images/wsymbols01_png_64/wsymbol_0008_clear_sky_night.png"
                     }
                  ],
                  "weatherDesc":[  
                     {  
                        "value":"Clear "
                     }
                  ],
                  "precipMM":"0.0",
                  "humidity":"78",
                  "visibility":"10",
                  "pressure":"1022",
                  "cloudcover":"0",
                  "HeatIndexC":"24",
                  "HeatIndexF":"76",
                  "DewPointC":"18",
                  "DewPointF":"64",
                  "WindChillC":"22",
                  "WindChillF":"71",
                  "WindGustMiles":"6",
                  "WindGustKmph":"9",
                  "FeelsLikeC":"22",
                  "FeelsLikeF":"71",
                  "chanceofrain":"0",
                  "chanceofremdry":"0",
                  "chanceofwindy":"0",
                  "chanceofovercast":"0",
                  "chanceofsunshine":"96",
                  "chanceoffrost":"0",
                  "chanceofhightemp":"0",
                  "chanceoffog":"0",
                  "chanceofsnow":"0",
                  "chanceofthunder":"0"
               }
            ]
         },
         {  
            "date":"2016-06-04",
            "astronomy":[  
               {  
                  "sunrise":"05:10 AM",
                  "sunset":"09:13 PM",
                  "moonrise":"05:19 AM",
                  "moonset":"08:41 PM"
               }
            ],
            "maxtempC":"22",
            "maxtempF":"72",
            "mintempC":"17",
            "mintempF":"63",
            "uvIndex":"8",
            "hourly":[  
               {  
                  "time":"200",
                  "tempC":"17",
                  "tempF":"62",
                  "windspeedMiles":"4",
                  "windspeedKmph":"6",
                  "winddirDegree":"331",
                  "winddir16Point":"NNW",
                  "weatherCode":"119",
                  "weatherIconUrl":[  
                     {  
                        "value":"http://cdn.worldweatheronline.net/images/wsymbols01_png_64/wsymbol_0004_black_low_cloud.png"
                     }
                  ],
                  "weatherDesc":[  
                     {  
                        "value":"Cloudy "
                     }
                  ],
                  "precipMM":"0.0",
                  "humidity":"83",
                  "visibility":"10",
                  "pressure":"1022",
                  "cloudcover":"70",
                  "HeatIndexC":"17",
                  "HeatIndexF":"62",
                  "DewPointC":"14",
                  "DewPointF":"57",
                  "WindChillC":"17",
                  "WindChillF":"62",
                  "WindGustMiles":"8",
                  "WindGustKmph":"13",
                  "FeelsLikeC":"17",
                  "FeelsLikeF":"62",
                  "chanceofrain":"0",
                  "chanceofremdry":"0",
                  "chanceofwindy":"0",
                  "chanceofovercast":"0",
                  "chanceofsunshine":"95",
                  "chanceoffrost":"0",
                  "chanceofhightemp":"0",
                  "chanceoffog":"0",
                  "chanceofsnow":"0",
                  "chanceofthunder":"0"
               },
               {  
                  "time":"500",
                  "tempC":"13",
                  "tempF":"56",
                  "windspeedMiles":"9",
                  "windspeedKmph":"14",
                  "winddirDegree":"332",
                  "winddir16Point":"NNW",
                  "weatherCode":"113",
                  "weatherIconUrl":[  
                     {  
                        "value":"http://cdn.worldweatheronline.net/images/wsymbols01_png_64/wsymbol_0008_clear_sky_night.png"
                     }
                  ],
                  "weatherDesc":[  
                     {  
                        "value":"Clear "
                     }
                  ],
                  "precipMM":"0.0",
                  "humidity":"85",
                  "visibility":"10",
                  "pressure":"1021",
                  "cloudcover":"0",
                  "HeatIndexC":"14",
                  "HeatIndexF":"57",
                  "DewPointC":"13",
                  "DewPointF":"55",
                  "WindChillC":"14",
                  "WindChillF":"57",
                  "WindGustMiles":"9",
                  "WindGustKmph":"14",
                  "FeelsLikeC":"14",
                  "FeelsLikeF":"57",
                  "chanceofrain":"0",
                  "chanceofremdry":"0",
                  "chanceofwindy":"0",
                  "chanceofovercast":"0",
                  "chanceofsunshine":"94",
                  "chanceoffrost":"0",
                  "chanceofhightemp":"0",
                  "chanceoffog":"0",
                  "chanceofsnow":"0",
                  "chanceofthunder":"0"
               },
               {  
                  "time":"800",
                  "tempC":"16",
                  "tempF":"61",
                  "windspeedMiles":"10",
                  "windspeedKmph":"16",
                  "winddirDegree":"315",
                  "winddir16Point":"NW",
                  "weatherCode":"113",
                  "weatherIconUrl":[  
                     {  
                        "value":"http://cdn.worldweatheronline.net/images/wsymbols01_png_64/wsymbol_0001_sunny.png"
                     }
                  ],
                  "weatherDesc":[  
                     {  
                        "value":"Sunny"
                     }
                  ],
                  "precipMM":"0.0",
                  "humidity":"76",
                  "visibility":"10",
                  "pressure":"1021",
                  "cloudcover":"0",
                  "HeatIndexC":"17",
                  "HeatIndexF":"63",
                  "DewPointC":"14",
                  "DewPointF":"57",
                  "WindChillC":"17",
                  "WindChillF":"63",
                  "WindGustMiles":"7",
                  "WindGustKmph":"12",
                  "FeelsLikeC":"17",
                  "FeelsLikeF":"63",
                  "chanceofrain":"0",
                  "chanceofremdry":"0",
                  "chanceofwindy":"0",
                  "chanceofovercast":"0",
                  "chanceofsunshine":"93",
                  "chanceoffrost":"0",
                  "chanceofhightemp":"0",
                  "chanceoffog":"0",
                  "chanceofsnow":"0",
                  "chanceofthunder":"0"
               },
               {  
                  "time":"1100",
                  "tempC":"19",
                  "tempF":"67",
                  "windspeedMiles":"12",
                  "windspeedKmph":"19",
                  "winddirDegree":"296",
                  "winddir16Point":"WNW",
                  "weatherCode":"113",
                  "weatherIconUrl":[  
                     {  
                        "value":"http://cdn.worldweatheronline.net/images/wsymbols01_png_64/wsymbol_0001_sunny.png"
                     }
                  ],
                  "weatherDesc":[  
                     {  
                        "value":"Sunny"
                     }
                  ],
                  "precipMM":"0.0",
                  "humidity":"69",
                  "visibility":"10",
                  "pressure":"1020",
                  "cloudcover":"0",
                  "HeatIndexC":"20",
                  "HeatIndexF":"68",
                  "DewPointC":"14",
                  "DewPointF":"57",
                  "WindChillC":"20",
                  "WindChillF":"68",
                  "WindGustMiles":"10",
                  "WindGustKmph":"15",
                  "FeelsLikeC":"20",
                  "FeelsLikeF":"68",
                  "chanceofrain":"0",
                  "chanceofremdry":"0",
                  "chanceofwindy":"0",
                  "chanceofovercast":"0",
                  "chanceofsunshine":"92",
                  "chanceoffrost":"0",
                  "chanceofhightemp":"0",
                  "chanceoffog":"0",
                  "chanceofsnow":"0",
                  "chanceofthunder":"0"
               },
               {  
                  "time":"1400",
                  "tempC":"21",
                  "tempF":"70",
                  "windspeedMiles":"11",
                  "windspeedKmph":"18",
                  "winddirDegree":"299",
                  "winddir16Point":"WNW",
                  "weatherCode":"113",
                  "weatherIconUrl":[  
                     {  
                        "value":"http://cdn.worldweatheronline.net/images/wsymbols01_png_64/wsymbol_0001_sunny.png"
                     }
                  ],
                  "weatherDesc":[  
                     {  
                        "value":"Sunny"
                     }
                  ],
                  "precipMM":"0.0",
                  "humidity":"61",
                  "visibility":"10",
                  "pressure":"1018",
                  "cloudcover":"0",
                  "HeatIndexC":"22",
                  "HeatIndexF":"72",
                  "DewPointC":"14",
                  "DewPointF":"57",
                  "WindChillC":"22",
                  "WindChillF":"72",
                  "WindGustMiles":"12",
                  "WindGustKmph":"19",
                  "FeelsLikeC":"22",
                  "FeelsLikeF":"72",
                  "chanceofrain":"0",
                  "chanceofremdry":"0",
                  "chanceofwindy":"0",
                  "chanceofovercast":"0",
                  "chanceofsunshine":"91",
                  "chanceoffrost":"0",
                  "chanceofhightemp":"15",
                  "chanceoffog":"0",
                  "chanceofsnow":"0",
                  "chanceofthunder":"0"
               },
               {  
                  "time":"1700",
                  "tempC":"22",
                  "tempF":"72",
                  "windspeedMiles":"11",
                  "windspeedKmph":"18",
                  "winddirDegree":"299",
                  "winddir16Point":"WNW",
                  "weatherCode":"113",
                  "weatherIconUrl":[  
                     {  
                        "value":"http://cdn.worldweatheronline.net/images/wsymbols01_png_64/wsymbol_0001_sunny.png"
                     }
                  ],
                  "weatherDesc":[  
                     {  
                        "value":"Sunny"
                     }
                  ],
                  "precipMM":"0.0",
                  "humidity":"57",
                  "visibility":"10",
                  "pressure":"1017",
                  "cloudcover":"0",
                  "HeatIndexC":"23",
                  "HeatIndexF":"73",
                  "DewPointC":"14",
                  "DewPointF":"57",
                  "WindChillC":"23",
                  "WindChillF":"73",
                  "WindGustMiles":"13",
                  "WindGustKmph":"22",
                  "FeelsLikeC":"23",
                  "FeelsLikeF":"73",
                  "chanceofrain":"0",
                  "chanceofremdry":"0",
                  "chanceofwindy":"0",
                  "chanceofovercast":"0",
                  "chanceofsunshine":"100",
                  "chanceoffrost":"0",
                  "chanceofhightemp":"46",
                  "chanceoffog":"0",
                  "chanceofsnow":"0",
                  "chanceofthunder":"0"
               },
               {  
                  "time":"2000",
                  "tempC":"20",
                  "tempF":"68",
                  "windspeedMiles":"8",
                  "windspeedKmph":"12",
                  "winddirDegree":"306",
                  "winddir16Point":"NW",
                  "weatherCode":"113",
                  "weatherIconUrl":[  
                     {  
                        "value":"http://cdn.worldweatheronline.net/images/wsymbols01_png_64/wsymbol_0001_sunny.png"
                     }
                  ],
                  "weatherDesc":[  
                     {  
                        "value":"Sunny"
                     }
                  ],
                  "precipMM":"0.0",
                  "humidity":"60",
                  "visibility":"10",
                  "pressure":"1015",
                  "cloudcover":"0",
                  "HeatIndexC":"21",
                  "HeatIndexF":"70",
                  "DewPointC":"14",
                  "DewPointF":"57",
                  "WindChillC":"21",
                  "WindChillF":"70",
                  "WindGustMiles":"12",
                  "WindGustKmph":"19",
                  "FeelsLikeC":"21",
                  "FeelsLikeF":"70",
                  "chanceofrain":"0",
                  "chanceofremdry":"0",
                  "chanceofwindy":"0",
                  "chanceofovercast":"0",
                  "chanceofsunshine":"89",
                  "chanceoffrost":"0",
                  "chanceofhightemp":"15",
                  "chanceoffog":"0",
                  "chanceofsnow":"0",
                  "chanceofthunder":"0"
               },
               {  
                  "time":"2300",
                  "tempC":"17",
                  "tempF":"63",
                  "windspeedMiles":"7",
                  "windspeedKmph":"11",
                  "winddirDegree":"323",
                  "winddir16Point":"NW",
                  "weatherCode":"113",
                  "weatherIconUrl":[  
                     {  
                        "value":"http://cdn.worldweatheronline.net/images/wsymbols01_png_64/wsymbol_0008_clear_sky_night.png"
                     }
                  ],
                  "weatherDesc":[  
                     {  
                        "value":"Clear "
                     }
                  ],
                  "precipMM":"0.0",
                  "humidity":"69",
                  "visibility":"10",
                  "pressure":"1015",
                  "cloudcover":"0",
                  "HeatIndexC":"18",
                  "HeatIndexF":"64",
                  "DewPointC":"14",
                  "DewPointF":"57",
                  "WindChillC":"18",
                  "WindChillF":"64",
                  "WindGustMiles":"10",
                  "WindGustKmph":"15",
                  "FeelsLikeC":"18",
                  "FeelsLikeF":"64",
                  "chanceofrain":"0",
                  "chanceofremdry":"0",
                  "chanceofwindy":"0",
                  "chanceofovercast":"0",
                  "chanceofsunshine":"88",
                  "chanceoffrost":"0",
                  "chanceofhightemp":"0",
                  "chanceoffog":"0",
                  "chanceofsnow":"0",
                  "chanceofthunder":"0"
               }
            ]
         },
         {  
            "date":"2016-06-05",
            "astronomy":[  
               {  
                  "sunrise":"05:09 AM",
                  "sunset":"09:14 PM",
                  "moonrise":"06:09 AM",
                  "moonset":"09:46 PM"
               }
            ],
            "maxtempC":"24",
            "maxtempF":"76",
            "mintempC":"16",
            "mintempF":"61",
            "uvIndex":"9",
            "hourly":[  
               {  
                  "time":"200",
                  "tempC":"19",
                  "tempF":"66",
                  "windspeedMiles":"4",
                  "windspeedKmph":"7",
                  "winddirDegree":"327",
                  "winddir16Point":"NNW",
                  "weatherCode":"113",
                  "weatherIconUrl":[  
                     {  
                        "value":"http://cdn.worldweatheronline.net/images/wsymbols01_png_64/wsymbol_0008_clear_sky_night.png"
                     }
                  ],
                  "weatherDesc":[  
                     {  
                        "value":"Clear "
                     }
                  ],
                  "precipMM":"0.0",
                  "humidity":"73",
                  "visibility":"10",
                  "pressure":"1014",
                  "cloudcover":"0",
                  "HeatIndexC":"19",
                  "HeatIndexF":"66",
                  "DewPointC":"14",
                  "DewPointF":"57",
                  "WindChillC":"19",
                  "WindChillF":"66",
                  "WindGustMiles":"9",
                  "WindGustKmph":"15",
                  "FeelsLikeC":"19",
                  "FeelsLikeF":"66",
                  "chanceofrain":"0",
                  "chanceofremdry":"0",
                  "chanceofwindy":"0",
                  "chanceofovercast":"0",
                  "chanceofsunshine":"87",
                  "chanceoffrost":"0",
                  "chanceofhightemp":"0",
                  "chanceoffog":"0",
                  "chanceofsnow":"0",
                  "chanceofthunder":"0"
               },
               {  
                  "time":"500",
                  "tempC":"17",
                  "tempF":"63",
                  "windspeedMiles":"4",
                  "windspeedKmph":"7",
                  "winddirDegree":"338",
                  "winddir16Point":"NNW",
                  "weatherCode":"116",
                  "weatherIconUrl":[  
                     {  
                        "value":"http://cdn.worldweatheronline.net/images/wsymbols01_png_64/wsymbol_0004_black_low_cloud.png"
                     }
                  ],
                  "weatherDesc":[  
                     {  
                        "value":"Partly Cloudy "
                     }
                  ],
                  "precipMM":"0.0",
                  "humidity":"74",
                  "visibility":"10",
                  "pressure":"1013",
                  "cloudcover":"51",
                  "HeatIndexC":"17",
                  "HeatIndexF":"63",
                  "DewPointC":"13",
                  "DewPointF":"55",
                  "WindChillC":"17",
                  "WindChillF":"63",
                  "WindGustMiles":"9",
                  "WindGustKmph":"14",
                  "FeelsLikeC":"17",
                  "FeelsLikeF":"63",
                  "chanceofrain":"0",
                  "chanceofremdry":"0",
                  "chanceofwindy":"0",
                  "chanceofovercast":"0",
                  "chanceofsunshine":"86",
                  "chanceoffrost":"0",
                  "chanceofhightemp":"0",
                  "chanceoffog":"0",
                  "chanceofsnow":"0",
                  "chanceofthunder":"0"
               },
               {  
                  "time":"800",
                  "tempC":"18",
                  "tempF":"65",
                  "windspeedMiles":"7",
                  "windspeedKmph":"11",
                  "winddirDegree":"325",
                  "winddir16Point":"NW",
                  "weatherCode":"113",
                  "weatherIconUrl":[  
                     {  
                        "value":"http://cdn.worldweatheronline.net/images/wsymbols01_png_64/wsymbol_0001_sunny.png"
                     }
                  ],
                  "weatherDesc":[  
                     {  
                        "value":"Sunny"
                     }
                  ],
                  "precipMM":"0.0",
                  "humidity":"66",
                  "visibility":"10",
                  "pressure":"1013",
                  "cloudcover":"0",
                  "HeatIndexC":"19",
                  "HeatIndexF":"66",
                  "DewPointC":"14",
                  "DewPointF":"57",
                  "WindChillC":"19",
                  "WindChillF":"66",
                  "WindGustMiles":"6",
                  "WindGustKmph":"10",
                  "FeelsLikeC":"19",
                  "FeelsLikeF":"66",
                  "chanceofrain":"0",
                  "chanceofremdry":"0",
                  "chanceofwindy":"0",
                  "chanceofovercast":"0",
                  "chanceofsunshine":"100",
                  "chanceoffrost":"0",
                  "chanceofhightemp":"0",
                  "chanceoffog":"0",
                  "chanceofsnow":"0",
                  "chanceofthunder":"0"
               },
               {  
                  "time":"1100",
                  "tempC":"21",
                  "tempF":"70",
                  "windspeedMiles":"6",
                  "windspeedKmph":"9",
                  "winddirDegree":"290",
                  "winddir16Point":"WNW",
                  "weatherCode":"113",
                  "weatherIconUrl":[  
                     {  
                        "value":"http://cdn.worldweatheronline.net/images/wsymbols01_png_64/wsymbol_0001_sunny.png"
                     }
                  ],
                  "weatherDesc":[  
                     {  
                        "value":"Sunny"
                     }
                  ],
                  "precipMM":"0.0",
                  "humidity":"59",
                  "visibility":"10",
                  "pressure":"1013",
                  "cloudcover":"0",
                  "HeatIndexC":"22",
                  "HeatIndexF":"72",
                  "DewPointC":"16",
                  "DewPointF":"61",
                  "WindChillC":"22",
                  "WindChillF":"72",
                  "WindGustMiles":"7",
                  "WindGustKmph":"11",
                  "FeelsLikeC":"22",
                  "FeelsLikeF":"72",
                  "chanceofrain":"0",
                  "chanceofremdry":"0",
                  "chanceofwindy":"0",
                  "chanceofovercast":"0",
                  "chanceofsunshine":"100",
                  "chanceoffrost":"0",
                  "chanceofhightemp":"33",
                  "chanceoffog":"0",
                  "chanceofsnow":"0",
                  "chanceofthunder":"0"
               },
               {  
                  "time":"1400",
                  "tempC":"23",
                  "tempF":"74",
                  "windspeedMiles":"7",
                  "windspeedKmph":"11",
                  "winddirDegree":"290",
                  "winddir16Point":"WNW",
                  "weatherCode":"113",
                  "weatherIconUrl":[  
                     {  
                        "value":"http://cdn.worldweatheronline.net/images/wsymbols01_png_64/wsymbol_0001_sunny.png"
                     }
                  ],
                  "weatherDesc":[  
                     {  
                        "value":"Sunny"
                     }
                  ],
                  "precipMM":"0.0",
                  "humidity":"54",
                  "visibility":"10",
                  "pressure":"1012",
                  "cloudcover":"0",
                  "HeatIndexC":"24",
                  "HeatIndexF":"75",
                  "DewPointC":"15",
                  "DewPointF":"59",
                  "WindChillC":"24",
                  "WindChillF":"75",
                  "WindGustMiles":"8",
                  "WindGustKmph":"13",
                  "FeelsLikeC":"24",
                  "FeelsLikeF":"75",
                  "chanceofrain":"0",
                  "chanceofremdry":"0",
                  "chanceofwindy":"0",
                  "chanceofovercast":"0",
                  "chanceofsunshine":"100",
                  "chanceoffrost":"0",
                  "chanceofhightemp":"86",
                  "chanceoffog":"0",
                  "chanceofsnow":"0",
                  "chanceofthunder":"0"
               },
               {  
                  "time":"1700",
                  "tempC":"24",
                  "tempF":"76",
                  "windspeedMiles":"6",
                  "windspeedKmph":"10",
                  "winddirDegree":"286",
                  "winddir16Point":"WNW",
                  "weatherCode":"113",
                  "weatherIconUrl":[  
                     {  
                        "value":"http://cdn.worldweatheronline.net/images/wsymbols01_png_64/wsymbol_0001_sunny.png"
                     }
                  ],
                  "weatherDesc":[  
                     {  
                        "value":"Sunny"
                     }
                  ],
                  "precipMM":"0.0",
                  "humidity":"50",
                  "visibility":"10",
                  "pressure":"1010",
                  "cloudcover":"0",
                  "HeatIndexC":"25",
                  "HeatIndexF":"77",
                  "DewPointC":"16",
                  "DewPointF":"61",
                  "WindChillC":"25",
                  "WindChillF":"77",
                  "WindGustMiles":"7",
                  "WindGustKmph":"12",
                  "FeelsLikeC":"25",
                  "FeelsLikeF":"77",
                  "chanceofrain":"0",
                  "chanceofremdry":"0",
                  "chanceofwindy":"0",
                  "chanceofovercast":"0",
                  "chanceofsunshine":"100",
                  "chanceoffrost":"0",
                  "chanceofhightemp":"90",
                  "chanceoffog":"0",
                  "chanceofsnow":"0",
                  "chanceofthunder":"0"
               },
               {  
                  "time":"2000",
                  "tempC":"21",
                  "tempF":"70",
                  "windspeedMiles":"5",
                  "windspeedKmph":"8",
                  "winddirDegree":"268",
                  "winddir16Point":"W",
                  "weatherCode":"113",
                  "weatherIconUrl":[  
                     {  
                        "value":"http://cdn.worldweatheronline.net/images/wsymbols01_png_64/wsymbol_0001_sunny.png"
                     }
                  ],
                  "weatherDesc":[  
                     {  
                        "value":"Sunny"
                     }
                  ],
                  "precipMM":"0.0",
                  "humidity":"57",
                  "visibility":"10",
                  "pressure":"1010",
                  "cloudcover":"3",
                  "HeatIndexC":"22",
                  "HeatIndexF":"72",
                  "DewPointC":"15",
                  "DewPointF":"59",
                  "WindChillC":"22",
                  "WindChillF":"72",
                  "WindGustMiles":"8",
                  "WindGustKmph":"13",
                  "FeelsLikeC":"22",
                  "FeelsLikeF":"72",
                  "chanceofrain":"0",
                  "chanceofremdry":"0",
                  "chanceofwindy":"0",
                  "chanceofovercast":"0",
                  "chanceofsunshine":"80",
                  "chanceoffrost":"0",
                  "chanceofhightemp":"80",
                  "chanceoffog":"0",
                  "chanceofsnow":"0",
                  "chanceofthunder":"0"
               },
               {  
                  "time":"2300",
                  "tempC":"21",
                  "tempF":"70",
                  "windspeedMiles":"3",
                  "windspeedKmph":"5",
                  "winddirDegree":"243",
                  "winddir16Point":"WSW",
                  "weatherCode":"113",
                  "weatherIconUrl":[  
                     {  
                        "value":"http://cdn.worldweatheronline.net/images/wsymbols01_png_64/wsymbol_0008_clear_sky_night.png"
                     }
                  ],
                  "weatherDesc":[  
                     {  
                        "value":"Clear "
                     }
                  ],
                  "precipMM":"0.0",
                  "humidity":"71",
                  "visibility":"10",
                  "pressure":"1011",
                  "cloudcover":"4",
                  "HeatIndexC":"21",
                  "HeatIndexF":"70",
                  "DewPointC":"16",
                  "DewPointF":"60",
                  "WindChillC":"21",
                  "WindChillF":"70",
                  "WindGustMiles":"6",
                  "WindGustKmph":"10",
                  "FeelsLikeC":"21",
                  "FeelsLikeF":"70",
                  "chanceofrain":"0",
                  "chanceofremdry":"0",
                  "chanceofwindy":"0",
                  "chanceofovercast":"0",
                  "chanceofsunshine":"79",
                  "chanceoffrost":"0",
                  "chanceofhightemp":"0",
                  "chanceoffog":"0",
                  "chanceofsnow":"0",
                  "chanceofthunder":"0"
               }
            ]
         },
         {  
            "date":"2016-06-06",
            "astronomy":[  
               {  
                  "sunrise":"05:09 AM",
                  "sunset":"09:15 PM",
                  "moonrise":"07:06 AM",
                  "moonset":"10:42 PM"
               }
            ],
            "maxtempC":"23",
            "maxtempF":"74",
            "mintempC":"13",
            "mintempF":"56",
            "uvIndex":"9",
            "hourly":[  
               {  
                  "time":"200",
                  "tempC":"16",
                  "tempF":"61",
                  "windspeedMiles":"7",
                  "windspeedKmph":"11",
                  "winddirDegree":"265",
                  "winddir16Point":"W",
                  "weatherCode":"113",
                  "weatherIconUrl":[  
                     {  
                        "value":"http://cdn.worldweatheronline.net/images/wsymbols01_png_64/wsymbol_0008_clear_sky_night.png"
                     }
                  ],
                  "weatherDesc":[  
                     {  
                        "value":"Clear "
                     }
                  ],
                  "precipMM":"0.0",
                  "humidity":"76",
                  "visibility":"10",
                  "pressure":"1011",
                  "cloudcover":"3",
                  "HeatIndexC":"17",
                  "HeatIndexF":"63",
                  "DewPointC":"13",
                  "DewPointF":"55",
                  "WindChillC":"17",
                  "WindChillF":"63",
                  "WindGustMiles":"3",
                  "WindGustKmph":"5",
                  "FeelsLikeC":"17",
                  "FeelsLikeF":"63",
                  "chanceofrain":"0",
                  "chanceofremdry":"0",
                  "chanceofwindy":"0",
                  "chanceofovercast":"0",
                  "chanceofsunshine":"78",
                  "chanceoffrost":"0",
                  "chanceofhightemp":"0",
                  "chanceoffog":"0",
                  "chanceofsnow":"0",
                  "chanceofthunder":"0"
               },
               {  
                  "time":"500",
                  "tempC":"18",
                  "tempF":"64",
                  "windspeedMiles":"3",
                  "windspeedKmph":"4",
                  "winddirDegree":"283",
                  "winddir16Point":"WNW",
                  "weatherCode":"113",
                  "weatherIconUrl":[  
                     {  
                        "value":"http://cdn.worldweatheronline.net/images/wsymbols01_png_64/wsymbol_0008_clear_sky_night.png"
                     }
                  ],
                  "weatherDesc":[  
                     {  
                        "value":"Clear "
                     }
                  ],
                  "precipMM":"0.0",
                  "humidity":"80",
                  "visibility":"10",
                  "pressure":"1012",
                  "cloudcover":"14",
                  "HeatIndexC":"18",
                  "HeatIndexF":"64",
                  "DewPointC":"14",
                  "DewPointF":"58",
                  "WindChillC":"18",
                  "WindChillF":"64",
                  "WindGustMiles":"4",
                  "WindGustKmph":"6",
                  "FeelsLikeC":"18",
                  "FeelsLikeF":"64",
                  "chanceofrain":"0",
                  "chanceofremdry":"0",
                  "chanceofwindy":"0",
                  "chanceofovercast":"0",
                  "chanceofsunshine":"77",
                  "chanceoffrost":"0",
                  "chanceofhightemp":"0",
                  "chanceoffog":"0",
                  "chanceofsnow":"0",
                  "chanceofthunder":"0"
               },
               {  
                  "time":"800",
                  "tempC":"18",
                  "tempF":"65",
                  "windspeedMiles":"5",
                  "windspeedKmph":"8",
                  "winddirDegree":"281",
                  "winddir16Point":"W",
                  "weatherCode":"122",
                  "weatherIconUrl":[  
                     {  
                        "value":"http://cdn.worldweatheronline.net/images/wsymbols01_png_64/wsymbol_0004_black_low_cloud.png"
                     }
                  ],
                  "weatherDesc":[  
                     {  
                        "value":"Overcast "
                     }
                  ],
                  "precipMM":"0.0",
                  "humidity":"77",
                  "visibility":"10",
                  "pressure":"1014",
                  "cloudcover":"97",
                  "HeatIndexC":"18",
                  "HeatIndexF":"64",
                  "DewPointC":"14",
                  "DewPointF":"57",
                  "WindChillC":"18",
                  "WindChillF":"64",
                  "WindGustMiles":"6",
                  "WindGustKmph":"9",
                  "FeelsLikeC":"18",
                  "FeelsLikeF":"64",
                  "chanceofrain":"0",
                  "chanceofremdry":"0",
                  "chanceofwindy":"0",
                  "chanceofovercast":"0",
                  "chanceofsunshine":"100",
                  "chanceoffrost":"0",
                  "chanceofhightemp":"0",
                  "chanceoffog":"0",
                  "chanceofsnow":"0",
                  "chanceofthunder":"0"
               },
               {  
                  "time":"1100",
                  "tempC":"21",
                  "tempF":"70",
                  "windspeedMiles":"7",
                  "windspeedKmph":"11",
                  "winddirDegree":"268",
                  "winddir16Point":"W",
                  "weatherCode":"113",
                  "weatherIconUrl":[  
                     {  
                        "value":"http://cdn.worldweatheronline.net/images/wsymbols01_png_64/wsymbol_0001_sunny.png"
                     }
                  ],
                  "weatherDesc":[  
                     {  
                        "value":"Sunny"
                     }
                  ],
                  "precipMM":"0.0",
                  "humidity":"70",
                  "visibility":"10",
                  "pressure":"1014",
                  "cloudcover":"11",
                  "HeatIndexC":"20",
                  "HeatIndexF":"68",
                  "DewPointC":"14",
                  "DewPointF":"57",
                  "WindChillC":"20",
                  "WindChillF":"68",
                  "WindGustMiles":"8",
                  "WindGustKmph":"13",
                  "FeelsLikeC":"20",
                  "FeelsLikeF":"68",
                  "chanceofrain":"0",
                  "chanceofremdry":"0",
                  "chanceofwindy":"0",
                  "chanceofovercast":"0",
                  "chanceofsunshine":"100",
                  "chanceoffrost":"0",
                  "chanceofhightemp":"0",
                  "chanceoffog":"0",
                  "chanceofsnow":"0",
                  "chanceofthunder":"0"
               },
               {  
                  "time":"1400",
                  "tempC":"23",
                  "tempF":"74",
                  "windspeedMiles":"8",
                  "windspeedKmph":"12",
                  "winddirDegree":"266",
                  "winddir16Point":"W",
                  "weatherCode":"116",
                  "weatherIconUrl":[  
                     {  
                        "value":"http://cdn.worldweatheronline.net/images/wsymbols01_png_64/wsymbol_0002_sunny_intervals.png"
                     }
                  ],
                  "weatherDesc":[  
                     {  
                        "value":"Partly Cloudy "
                     }
                  ],
                  "precipMM":"0.0",
                  "humidity":"63",
                  "visibility":"10",
                  "pressure":"1013",
                  "cloudcover":"32",
                  "HeatIndexC":"21",
                  "HeatIndexF":"70",
                  "DewPointC":"14",
                  "DewPointF":"57",
                  "WindChillC":"21",
                  "WindChillF":"70",
                  "WindGustMiles":"9",
                  "WindGustKmph":"14",
                  "FeelsLikeC":"21",
                  "FeelsLikeF":"70",
                  "chanceofrain":"0",
                  "chanceofremdry":"0",
                  "chanceofwindy":"0",
                  "chanceofovercast":"0",
                  "chanceofsunshine":"74",
                  "chanceoffrost":"0",
                  "chanceofhightemp":"0",
                  "chanceoffog":"0",
                  "chanceofsnow":"0",
                  "chanceofthunder":"0"
               },
               {  
                  "time":"1700",
                  "tempC":"22",
                  "tempF":"72",
                  "windspeedMiles":"7",
                  "windspeedKmph":"11",
                  "winddirDegree":"247",
                  "winddir16Point":"WSW",
                  "weatherCode":"113",
                  "weatherIconUrl":[  
                     {  
                        "value":"http://cdn.worldweatheronline.net/images/wsymbols01_png_64/wsymbol_0001_sunny.png"
                     }
                  ],
                  "weatherDesc":[  
                     {  
                        "value":"Sunny"
                     }
                  ],
                  "precipMM":"0.0",
                  "humidity":"60",
                  "visibility":"10",
                  "pressure":"1012",
                  "cloudcover":"12",
                  "HeatIndexC":"21",
                  "HeatIndexF":"70",
                  "DewPointC":"13",
                  "DewPointF":"55",
                  "WindChillC":"21",
                  "WindChillF":"70",
                  "WindGustMiles":"10",
                  "WindGustKmph":"16",
                  "FeelsLikeC":"21",
                  "FeelsLikeF":"70",
                  "chanceofrain":"0",
                  "chanceofremdry":"0",
                  "chanceofwindy":"0",
                  "chanceofovercast":"0",
                  "chanceofsunshine":"100",
                  "chanceoffrost":"0",
                  "chanceofhightemp":"0",
                  "chanceoffog":"0",
                  "chanceofsnow":"0",
                  "chanceofthunder":"0"
               },
               {  
                  "time":"2000",
                  "tempC":"20",
                  "tempF":"67",
                  "windspeedMiles":"4",
                  "windspeedKmph":"7",
                  "winddirDegree":"221",
                  "winddir16Point":"SW",
                  "weatherCode":"122",
                  "weatherIconUrl":[  
                     {  
                        "value":"http://cdn.worldweatheronline.net/images/wsymbols01_png_64/wsymbol_0004_black_low_cloud.png"
                     }
                  ],
                  "weatherDesc":[  
                     {  
                        "value":"Overcast "
                     }
                  ],
                  "precipMM":"0.0",
                  "humidity":"65",
                  "visibility":"10",
                  "pressure":"1011",
                  "cloudcover":"98",
                  "HeatIndexC":"20",
                  "HeatIndexF":"67",
                  "DewPointC":"13",
                  "DewPointF":"55",
                  "WindChillC":"20",
                  "WindChillF":"67",
                  "WindGustMiles":"7",
                  "WindGustKmph":"11",
                  "FeelsLikeC":"20",
                  "FeelsLikeF":"67",
                  "chanceofrain":"0",
                  "chanceofremdry":"0",
                  "chanceofwindy":"0",
                  "chanceofovercast":"0",
                  "chanceofsunshine":"72",
                  "chanceoffrost":"0",
                  "chanceofhightemp":"0",
                  "chanceoffog":"0",
                  "chanceofsnow":"0",
                  "chanceofthunder":"0"
               },
               {  
                  "time":"2300",
                  "tempC":"19",
                  "tempF":"66",
                  "windspeedMiles":"2",
                  "windspeedKmph":"4",
                  "winddirDegree":"179",
                  "winddir16Point":"S",
                  "weatherCode":"122",
                  "weatherIconUrl":[  
                     {  
                        "value":"http://cdn.worldweatheronline.net/images/wsymbols01_png_64/wsymbol_0004_black_low_cloud.png"
                     }
                  ],
                  "weatherDesc":[  
                     {  
                        "value":"Overcast "
                     }
                  ],
                  "precipMM":"0.0",
                  "humidity":"76",
                  "visibility":"10",
                  "pressure":"1011",
                  "cloudcover":"100",
                  "HeatIndexC":"19",
                  "HeatIndexF":"66",
                  "DewPointC":"14",
                  "DewPointF":"58",
                  "WindChillC":"19",
                  "WindChillF":"66",
                  "WindGustMiles":"4",
                  "WindGustKmph":"6",
                  "FeelsLikeC":"19",
                  "FeelsLikeF":"66",
                  "chanceofrain":"0",
                  "chanceofremdry":"0",
                  "chanceofwindy":"0",
                  "chanceofovercast":"0",
                  "chanceofsunshine":"71",
                  "chanceoffrost":"0",
                  "chanceofhightemp":"0",
                  "chanceoffog":"0",
                  "chanceofsnow":"0",
                  "chanceofthunder":"0"
               }
            ]
         },
         {  
            "date":"2016-06-07",
            "astronomy":[  
               {  
                  "sunrise":"05:08 AM",
                  "sunset":"09:15 PM",
                  "moonrise":"08:09 AM",
                  "moonset":"11:29 PM"
               }
            ],
            "maxtempC":"19",
            "maxtempF":"67",
            "mintempC":"13",
            "mintempF":"55",
            "uvIndex":"8",
            "hourly":[  
               {  
                  "time":"200",
                  "tempC":"15",
                  "tempF":"58",
                  "windspeedMiles":"1",
                  "windspeedKmph":"2",
                  "winddirDegree":"162",
                  "winddir16Point":"SSE",
                  "weatherCode":"113",
                  "weatherIconUrl":[  
                     {  
                        "value":"http://cdn.worldweatheronline.net/images/wsymbols01_png_64/wsymbol_0008_clear_sky_night.png"
                     }
                  ],
                  "weatherDesc":[  
                     {  
                        "value":"Clear "
                     }
                  ],
                  "precipMM":"0.0",
                  "humidity":"81",
                  "visibility":"10",
                  "pressure":"1010",
                  "cloudcover":"19",
                  "HeatIndexC":"15",
                  "HeatIndexF":"58",
                  "DewPointC":"12",
                  "DewPointF":"53",
                  "WindChillC":"15",
                  "WindChillF":"58",
                  "WindGustMiles":"2",
                  "WindGustKmph":"4",
                  "FeelsLikeC":"15",
                  "FeelsLikeF":"58",
                  "chanceofrain":"0",
                  "chanceofremdry":"0",
                  "chanceofwindy":"0",
                  "chanceofovercast":"0",
                  "chanceofsunshine":"70",
                  "chanceoffrost":"0",
                  "chanceofhightemp":"0",
                  "chanceoffog":"0",
                  "chanceofsnow":"0",
                  "chanceofthunder":"0"
               },
               {  
                  "time":"500",
                  "tempC":"13",
                  "tempF":"56",
                  "windspeedMiles":"1",
                  "windspeedKmph":"2",
                  "winddirDegree":"306",
                  "winddir16Point":"NW",
                  "weatherCode":"116",
                  "weatherIconUrl":[  
                     {  
                        "value":"http://cdn.worldweatheronline.net/images/wsymbols01_png_64/wsymbol_0004_black_low_cloud.png"
                     }
                  ],
                  "weatherDesc":[  
                     {  
                        "value":"Partly Cloudy "
                     }
                  ],
                  "precipMM":"0.0",
                  "humidity":"82",
                  "visibility":"10",
                  "pressure":"1010",
                  "cloudcover":"32",
                  "HeatIndexC":"13",
                  "HeatIndexF":"56",
                  "DewPointC":"10",
                  "DewPointF":"51",
                  "WindChillC":"13",
                  "WindChillF":"56",
                  "WindGustMiles":"2",
                  "WindGustKmph":"4",
                  "FeelsLikeC":"13",
                  "FeelsLikeF":"56",
                  "chanceofrain":"0",
                  "chanceofremdry":"0",
                  "chanceofwindy":"0",
                  "chanceofovercast":"0",
                  "chanceofsunshine":"69",
                  "chanceoffrost":"0",
                  "chanceofhightemp":"0",
                  "chanceoffog":"0",
                  "chanceofsnow":"0",
                  "chanceofthunder":"0"
               },
               {  
                  "time":"800",
                  "tempC":"18",
                  "tempF":"65",
                  "windspeedMiles":"2",
                  "windspeedKmph":"3",
                  "winddirDegree":"158",
                  "winddir16Point":"SSE",
                  "weatherCode":"113",
                  "weatherIconUrl":[  
                     {  
                        "value":"http://cdn.worldweatheronline.net/images/wsymbols01_png_64/wsymbol_0001_sunny.png"
                     }
                  ],
                  "weatherDesc":[  
                     {  
                        "value":"Sunny"
                     }
                  ],
                  "precipMM":"0.0",
                  "humidity":"73",
                  "visibility":"10",
                  "pressure":"1009",
                  "cloudcover":"12",
                  "HeatIndexC":"18",
                  "HeatIndexF":"65",
                  "DewPointC":"14",
                  "DewPointF":"56",
                  "WindChillC":"18",
                  "WindChillF":"65",
                  "WindGustMiles":"3",
                  "WindGustKmph":"4",
                  "FeelsLikeC":"18",
                  "FeelsLikeF":"65",
                  "chanceofrain":"0",
                  "chanceofremdry":"0",
                  "chanceofwindy":"0",
                  "chanceofovercast":"0",
                  "chanceofsunshine":"100",
                  "chanceoffrost":"0",
                  "chanceofhightemp":"0",
                  "chanceoffog":"0",
                  "chanceofsnow":"0",
                  "chanceofthunder":"0"
               },
               {  
                  "time":"1100",
                  "tempC":"18",
                  "tempF":"65",
                  "windspeedMiles":"6",
                  "windspeedKmph":"9",
                  "winddirDegree":"207",
                  "winddir16Point":"SSW",
                  "weatherCode":"113",
                  "weatherIconUrl":[  
                     {  
                        "value":"http://cdn.worldweatheronline.net/images/wsymbols01_png_64/wsymbol_0001_sunny.png"
                     }
                  ],
                  "weatherDesc":[  
                     {  
                        "value":"Sunny"
                     }
                  ],
                  "precipMM":"0.0",
                  "humidity":"66",
                  "visibility":"10",
                  "pressure":"1008",
                  "cloudcover":"21",
                  "HeatIndexC":"19",
                  "HeatIndexF":"66",
                  "DewPointC":"14",
                  "DewPointF":"57",
                  "WindChillC":"19",
                  "WindChillF":"66",
                  "WindGustMiles":"4",
                  "WindGustKmph":"6",
                  "FeelsLikeC":"19",
                  "FeelsLikeF":"66",
                  "chanceofrain":"0",
                  "chanceofremdry":"0",
                  "chanceofwindy":"0",
                  "chanceofovercast":"0",
                  "chanceofsunshine":"100",
                  "chanceoffrost":"0",
                  "chanceofhightemp":"0",
                  "chanceoffog":"0",
                  "chanceofsnow":"0",
                  "chanceofthunder":"0"
               },
               {  
                  "time":"1400",
                  "tempC":"19",
                  "tempF":"67",
                  "windspeedMiles":"5",
                  "windspeedKmph":"8",
                  "winddirDegree":"228",
                  "winddir16Point":"SW",
                  "weatherCode":"113",
                  "weatherIconUrl":[  
                     {  
                        "value":"http://cdn.worldweatheronline.net/images/wsymbols01_png_64/wsymbol_0001_sunny.png"
                     }
                  ],
                  "weatherDesc":[  
                     {  
                        "value":"Sunny"
                     }
                  ],
                  "precipMM":"0.0",
                  "humidity":"63",
                  "visibility":"10",
                  "pressure":"1007",
                  "cloudcover":"6",
                  "HeatIndexC":"20",
                  "HeatIndexF":"68",
                  "DewPointC":"13",
                  "DewPointF":"55",
                  "WindChillC":"20",
                  "WindChillF":"68",
                  "WindGustMiles":"3",
                  "WindGustKmph":"5",
                  "FeelsLikeC":"20",
                  "FeelsLikeF":"68",
                  "chanceofrain":"0",
                  "chanceofremdry":"0",
                  "chanceofwindy":"0",
                  "chanceofovercast":"0",
                  "chanceofsunshine":"100",
                  "chanceoffrost":"0",
                  "chanceofhightemp":"29",
                  "chanceoffog":"0",
                  "chanceofsnow":"0",
                  "chanceofthunder":"0"
               },
               {  
                  "time":"1700",
                  "tempC":"19",
                  "tempF":"67",
                  "windspeedMiles":"6",
                  "windspeedKmph":"9",
                  "winddirDegree":"174",
                  "winddir16Point":"S",
                  "weatherCode":"113",
                  "weatherIconUrl":[  
                     {  
                        "value":"http://cdn.worldweatheronline.net/images/wsymbols01_png_64/wsymbol_0001_sunny.png"
                     }
                  ],
                  "weatherDesc":[  
                     {  
                        "value":"Sunny"
                     }
                  ],
                  "precipMM":"0.0",
                  "humidity":"62",
                  "visibility":"10",
                  "pressure":"1006",
                  "cloudcover":"7",
                  "HeatIndexC":"20",
                  "HeatIndexF":"68",
                  "DewPointC":"12",
                  "DewPointF":"54",
                  "WindChillC":"20",
                  "WindChillF":"68",
                  "WindGustMiles":"2",
                  "WindGustKmph":"3",
                  "FeelsLikeC":"20",
                  "FeelsLikeF":"68",
                  "chanceofrain":"0",
                  "chanceofremdry":"0",
                  "chanceofwindy":"0",
                  "chanceofovercast":"0",
                  "chanceofsunshine":"100",
                  "chanceoffrost":"0",
                  "chanceofhightemp":"72",
                  "chanceoffog":"0",
                  "chanceofsnow":"0",
                  "chanceofthunder":"0"
               },
               {  
                  "time":"2000",
                  "tempC":"17",
                  "tempF":"63",
                  "windspeedMiles":"3",
                  "windspeedKmph":"5",
                  "winddirDegree":"127",
                  "winddir16Point":"SE",
                  "weatherCode":"113",
                  "weatherIconUrl":[  
                     {  
                        "value":"http://cdn.worldweatheronline.net/images/wsymbols01_png_64/wsymbol_0001_sunny.png"
                     }
                  ],
                  "weatherDesc":[  
                     {  
                        "value":"Sunny"
                     }
                  ],
                  "precipMM":"0.0",
                  "humidity":"70",
                  "visibility":"10",
                  "pressure":"1006",
                  "cloudcover":"7",
                  "HeatIndexC":"18",
                  "HeatIndexF":"64",
                  "DewPointC":"13",
                  "DewPointF":"55",
                  "WindChillC":"18",
                  "WindChillF":"64",
                  "WindGustMiles":"5",
                  "WindGustKmph":"8",
                  "FeelsLikeC":"18",
                  "FeelsLikeF":"64",
                  "chanceofrain":"0",
                  "chanceofremdry":"0",
                  "chanceofwindy":"0",
                  "chanceofovercast":"0",
                  "chanceofsunshine":"63",
                  "chanceoffrost":"0",
                  "chanceofhightemp":"0",
                  "chanceoffog":"0",
                  "chanceofsnow":"0",
                  "chanceofthunder":"0"
               },
               {  
                  "time":"2300",
                  "tempC":"17",
                  "tempF":"62",
                  "windspeedMiles":"3",
                  "windspeedKmph":"5",
                  "winddirDegree":"124",
                  "winddir16Point":"ESE",
                  "weatherCode":"113",
                  "weatherIconUrl":[  
                     {  
                        "value":"http://cdn.worldweatheronline.net/images/wsymbols01_png_64/wsymbol_0008_clear_sky_night.png"
                     }
                  ],
                  "weatherDesc":[  
                     {  
                        "value":"Clear "
                     }
                  ],
                  "precipMM":"0.0",
                  "humidity":"65",
                  "visibility":"10",
                  "pressure":"1007",
                  "cloudcover":"11",
                  "HeatIndexC":"17",
                  "HeatIndexF":"62",
                  "DewPointC":"10",
                  "DewPointF":"50",
                  "WindChillC":"17",
                  "WindChillF":"62",
                  "WindGustMiles":"6",
                  "WindGustKmph":"10",
                  "FeelsLikeC":"17",
                  "FeelsLikeF":"62",
                  "chanceofrain":"0",
                  "chanceofremdry":"0",
                  "chanceofwindy":"0",
                  "chanceofovercast":"0",
                  "chanceofsunshine":"62",
                  "chanceoffrost":"0",
                  "chanceofhightemp":"0",
                  "chanceoffog":"0",
                  "chanceofsnow":"0",
                  "chanceofthunder":"0"
               }
            ]
         }
      ],
      "ClimateAverages":[  
         {  
            "month":[  
               {  
                  "index":"1",
                  "name":"January",
                  "avgMinTemp":"0.9",
                  "avgMinTemp_F":"33.6",
                  "absMaxTemp":"15",
                  "absMaxTemp_F":"59.0"
               },
               {  
                  "index":"2",
                  "name":"February",
                  "avgMinTemp":"0.8",
                  "avgMinTemp_F":"33.4",
                  "absMaxTemp":"16.1",
                  "absMaxTemp_F":"61.0"
               },
               {  
                  "index":"3",
                  "name":"March",
                  "avgMinTemp":"2.9",
                  "avgMinTemp_F":"37.2",
                  "absMaxTemp":"18.5",
                  "absMaxTemp_F":"65.3"
               },
               {  
                  "index":"4",
                  "name":"April",
                  "avgMinTemp":"5.4",
                  "avgMinTemp_F":"41.7",
                  "absMaxTemp":"22.1",
                  "absMaxTemp_F":"71.8"
               },
               {  
                  "index":"5",
                  "name":"May",
                  "avgMinTemp":"8.6",
                  "avgMinTemp_F":"47.5",
                  "absMaxTemp":"28.3",
                  "absMaxTemp_F":"82.9"
               },
               {  
                  "index":"6",
                  "name":"June",
                  "avgMinTemp":"11.5",
                  "avgMinTemp_F":"52.7",
                  "absMaxTemp":"30.2",
                  "absMaxTemp_F":"86.4"
               },
               {  
                  "index":"7",
                  "name":"July",
                  "avgMinTemp":"13.6",
                  "avgMinTemp_F":"56.5",
                  "absMaxTemp":"31.9",
                  "absMaxTemp_F":"89.4"
               },
               {  
                  "index":"8",
                  "name":"August",
                  "avgMinTemp":"13.5",
                  "avgMinTemp_F":"56.3",
                  "absMaxTemp":"31.9",
                  "absMaxTemp_F":"89.4"
               },
               {  
                  "index":"9",
                  "name":"September",
                  "avgMinTemp":"10.7",
                  "avgMinTemp_F":"51.3",
                  "absMaxTemp":"27.4",
                  "absMaxTemp_F":"81.3"
               },
               {  
                  "index":"10",
                  "name":"October",
                  "avgMinTemp":"6.8",
                  "avgMinTemp_F":"44.2",
                  "absMaxTemp":"24.2",
                  "absMaxTemp_F":"75.6"
               },
               {  
                  "index":"11",
                  "name":"November",
                  "avgMinTemp":"3.2",
                  "avgMinTemp_F":"37.8",
                  "absMaxTemp":"17",
                  "absMaxTemp_F":"62.6"
               },
               {  
                  "index":"12",
                  "name":"December",
                  "avgMinTemp":"0.7",
                  "avgMinTemp_F":"33.3",
                  "absMaxTemp":"14.9",
                  "absMaxTemp_F":"58.8"
               }
            ]
         }
      ]
   }
}